%YAML 1.1
%TAG !u! tag:unity3d.com,2011:
--- !u!114 &11400000
MonoBehaviour:
  m_ObjectHideFlags: 0
  m_PrefabParentObject: {fileID: 0}
  m_PrefabInternal: {fileID: 0}
  m_GameObject: {fileID: 0}
  m_Enabled: 1
  m_EditorHideFlags: 0
  m_Script: {fileID: 11500000, guid: 003131bbebafd76499040ed07cf3784b, type: 3}
  m_Name: Melee2
  m_EditorClassIdentifier: 
  sprite: {fileID: 0}
  itemName: Melee2
  weaponDamage: 3
  cooldown: 0
  projectileSpeed: 0
