%YAML 1.1
%TAG !u! tag:unity3d.com,2011:
--- !u!74 &7400000
AnimationClip:
  m_ObjectHideFlags: 0
  m_PrefabParentObject: {fileID: 0}
  m_PrefabInternal: {fileID: 0}
  m_Name: Smoke1Anim
  serializedVersion: 6
  m_Legacy: 0
  m_Compressed: 0
  m_UseHighQualityCurve: 1
  m_RotationCurves: []
  m_CompressedRotationCurves: []
  m_EulerCurves: []
  m_PositionCurves: []
  m_ScaleCurves: []
  m_FloatCurves: []
  m_PPtrCurves:
  - curve:
    - time: 0
      value: {fileID: 21300000, guid: 0bb7a6885d5e74e98a614c768cd5b066, type: 3}
    - time: 0.016666668
      value: {fileID: 21300002, guid: 0bb7a6885d5e74e98a614c768cd5b066, type: 3}
    - time: 0.033333335
      value: {fileID: 21300004, guid: 0bb7a6885d5e74e98a614c768cd5b066, type: 3}
    - time: 0.05
      value: {fileID: 21300006, guid: 0bb7a6885d5e74e98a614c768cd5b066, type: 3}
    - time: 0.06666667
      value: {fileID: 21300008, guid: 0bb7a6885d5e74e98a614c768cd5b066, type: 3}
    - time: 0.083333336
      value: {fileID: 21300010, guid: 0bb7a6885d5e74e98a614c768cd5b066, type: 3}
    - time: 0.1
      value: {fileID: 21300012, guid: 0bb7a6885d5e74e98a614c768cd5b066, type: 3}
    - time: 0.11666667
      value: {fileID: 21300014, guid: 0bb7a6885d5e74e98a614c768cd5b066, type: 3}
    - time: 0.13333334
      value: {fileID: 21300016, guid: 0bb7a6885d5e74e98a614c768cd5b066, type: 3}
    - time: 0.15
      value: {fileID: 21300018, guid: 0bb7a6885d5e74e98a614c768cd5b066, type: 3}
    - time: 0.16666667
      value: {fileID: 21300020, guid: 0bb7a6885d5e74e98a614c768cd5b066, type: 3}
    - time: 0.18333334
      value: {fileID: 21300022, guid: 0bb7a6885d5e74e98a614c768cd5b066, type: 3}
    - time: 0.2
      value: {fileID: 21300024, guid: 0bb7a6885d5e74e98a614c768cd5b066, type: 3}
    - time: 0.21666667
      value: {fileID: 21300026, guid: 0bb7a6885d5e74e98a614c768cd5b066, type: 3}
    - time: 0.23333333
      value: {fileID: 21300028, guid: 0bb7a6885d5e74e98a614c768cd5b066, type: 3}
    - time: 0.25
      value: {fileID: 21300030, guid: 0bb7a6885d5e74e98a614c768cd5b066, type: 3}
    - time: 0.26666668
      value: {fileID: 21300032, guid: 0bb7a6885d5e74e98a614c768cd5b066, type: 3}
    - time: 0.28333336
      value: {fileID: 21300034, guid: 0bb7a6885d5e74e98a614c768cd5b066, type: 3}
    - time: 0.30000004
      value: {fileID: 21300036, guid: 0bb7a6885d5e74e98a614c768cd5b066, type: 3}
    - time: 0.31666672
      value: {fileID: 21300038, guid: 0bb7a6885d5e74e98a614c768cd5b066, type: 3}
    - time: 0.3333334
      value: {fileID: 21300040, guid: 0bb7a6885d5e74e98a614c768cd5b066, type: 3}
    - time: 0.35000008
      value: {fileID: 21300042, guid: 0bb7a6885d5e74e98a614c768cd5b066, type: 3}
    - time: 0.36666676
      value: {fileID: 21300044, guid: 0bb7a6885d5e74e98a614c768cd5b066, type: 3}
    - time: 0.38333344
      value: {fileID: 21300046, guid: 0bb7a6885d5e74e98a614c768cd5b066, type: 3}
    - time: 0.40000013
      value: {fileID: 21300048, guid: 0bb7a6885d5e74e98a614c768cd5b066, type: 3}
    - time: 0.4166668
      value: {fileID: 21300050, guid: 0bb7a6885d5e74e98a614c768cd5b066, type: 3}
    - time: 0.4333335
      value: {fileID: 21300052, guid: 0bb7a6885d5e74e98a614c768cd5b066, type: 3}
    - time: 0.45000017
      value: {fileID: 21300054, guid: 0bb7a6885d5e74e98a614c768cd5b066, type: 3}
    - time: 0.46666685
      value: {fileID: 21300056, guid: 0bb7a6885d5e74e98a614c768cd5b066, type: 3}
    - time: 0.48333353
      value: {fileID: 21300058, guid: 0bb7a6885d5e74e98a614c768cd5b066, type: 3}
    - time: 0.5000002
      value: {fileID: 21300060, guid: 0bb7a6885d5e74e98a614c768cd5b066, type: 3}
    - time: 0.5166668
      value: {fileID: 21300062, guid: 0bb7a6885d5e74e98a614c768cd5b066, type: 3}
    - time: 0.5333335
      value: {fileID: 21300064, guid: 0bb7a6885d5e74e98a614c768cd5b066, type: 3}
    - time: 0.55000013
      value: {fileID: 21300066, guid: 0bb7a6885d5e74e98a614c768cd5b066, type: 3}
    - time: 0.5666668
      value: {fileID: 21300068, guid: 0bb7a6885d5e74e98a614c768cd5b066, type: 3}
    - time: 0.58333343
      value: {fileID: 21300070, guid: 0bb7a6885d5e74e98a614c768cd5b066, type: 3}
    - time: 0.6000001
      value: {fileID: 21300072, guid: 0bb7a6885d5e74e98a614c768cd5b066, type: 3}
    - time: 0.61666673
      value: {fileID: 21300074, guid: 0bb7a6885d5e74e98a614c768cd5b066, type: 3}
    - time: 0.6333334
      value: {fileID: 21300076, guid: 0bb7a6885d5e74e98a614c768cd5b066, type: 3}
    - time: 0.65000004
      value: {fileID: 21300078, guid: 0bb7a6885d5e74e98a614c768cd5b066, type: 3}
    - time: 0.6666667
      value: {fileID: 21300080, guid: 0bb7a6885d5e74e98a614c768cd5b066, type: 3}
    - time: 0.68333334
      value: {fileID: 21300082, guid: 0bb7a6885d5e74e98a614c768cd5b066, type: 3}
    - time: 0.7
      value: {fileID: 21300084, guid: 0bb7a6885d5e74e98a614c768cd5b066, type: 3}
    - time: 0.71666664
      value: {fileID: 21300086, guid: 0bb7a6885d5e74e98a614c768cd5b066, type: 3}
    - time: 0.7333333
      value: {fileID: 21300088, guid: 0bb7a6885d5e74e98a614c768cd5b066, type: 3}
    - time: 0.74999994
      value: {fileID: 21300090, guid: 0bb7a6885d5e74e98a614c768cd5b066, type: 3}
    - time: 0.7666666
      value: {fileID: 21300092, guid: 0bb7a6885d5e74e98a614c768cd5b066, type: 3}
    - time: 0.78333324
      value: {fileID: 21300094, guid: 0bb7a6885d5e74e98a614c768cd5b066, type: 3}
    - time: 0.7999999
      value: {fileID: 21300096, guid: 0bb7a6885d5e74e98a614c768cd5b066, type: 3}
    - time: 0.81666654
      value: {fileID: 21300098, guid: 0bb7a6885d5e74e98a614c768cd5b066, type: 3}
    - time: 0.8333332
      value: {fileID: 21300100, guid: 0bb7a6885d5e74e98a614c768cd5b066, type: 3}
    - time: 0.84999985
      value: {fileID: 21300102, guid: 0bb7a6885d5e74e98a614c768cd5b066, type: 3}
    - time: 0.8666665
      value: {fileID: 21300104, guid: 0bb7a6885d5e74e98a614c768cd5b066, type: 3}
    - time: 0.88333315
      value: {fileID: 21300106, guid: 0bb7a6885d5e74e98a614c768cd5b066, type: 3}
    - time: 0.8999998
      value: {fileID: 21300108, guid: 0bb7a6885d5e74e98a614c768cd5b066, type: 3}
    - time: 0.91666645
      value: {fileID: 21300110, guid: 0bb7a6885d5e74e98a614c768cd5b066, type: 3}
    - time: 0.9333331
      value: {fileID: 21300112, guid: 0bb7a6885d5e74e98a614c768cd5b066, type: 3}
    - time: 0.94999975
      value: {fileID: 21300114, guid: 0bb7a6885d5e74e98a614c768cd5b066, type: 3}
    - time: 0.9666664
      value: {fileID: 21300116, guid: 0bb7a6885d5e74e98a614c768cd5b066, type: 3}
    - time: 0.98333305
      value: {fileID: 21300118, guid: 0bb7a6885d5e74e98a614c768cd5b066, type: 3}
    - time: 0.9999997
      value: {fileID: 21300120, guid: 0bb7a6885d5e74e98a614c768cd5b066, type: 3}
    - time: 1.0166664
      value: {fileID: 21300122, guid: 0bb7a6885d5e74e98a614c768cd5b066, type: 3}
    - time: 1.0333331
      value: {fileID: 21300124, guid: 0bb7a6885d5e74e98a614c768cd5b066, type: 3}
    - time: 1.0499997
      value: {fileID: 21300126, guid: 0bb7a6885d5e74e98a614c768cd5b066, type: 3}
    - time: 1.0666664
      value: {fileID: 21300128, guid: 0bb7a6885d5e74e98a614c768cd5b066, type: 3}
    - time: 1.083333
      value: {fileID: 21300130, guid: 0bb7a6885d5e74e98a614c768cd5b066, type: 3}
    - time: 1.0999997
      value: {fileID: 21300132, guid: 0bb7a6885d5e74e98a614c768cd5b066, type: 3}
    - time: 1.1166663
      value: {fileID: 21300134, guid: 0bb7a6885d5e74e98a614c768cd5b066, type: 3}
    - time: 1.133333
      value: {fileID: 21300136, guid: 0bb7a6885d5e74e98a614c768cd5b066, type: 3}
    - time: 1.1499996
      value: {fileID: 21300138, guid: 0bb7a6885d5e74e98a614c768cd5b066, type: 3}
    - time: 1.1666663
      value: {fileID: 21300140, guid: 0bb7a6885d5e74e98a614c768cd5b066, type: 3}
    - time: 1.1833329
      value: {fileID: 21300142, guid: 0bb7a6885d5e74e98a614c768cd5b066, type: 3}
    - time: 1.1999996
      value: {fileID: 21300144, guid: 0bb7a6885d5e74e98a614c768cd5b066, type: 3}
    - time: 1.2166662
      value: {fileID: 21300146, guid: 0bb7a6885d5e74e98a614c768cd5b066, type: 3}
    - time: 1.2333329
      value: {fileID: 21300148, guid: 0bb7a6885d5e74e98a614c768cd5b066, type: 3}
    - time: 1.2499995
      value: {fileID: 21300150, guid: 0bb7a6885d5e74e98a614c768cd5b066, type: 3}
    - time: 1.2666662
      value: {fileID: 21300152, guid: 0bb7a6885d5e74e98a614c768cd5b066, type: 3}
    - time: 1.2833328
      value: {fileID: 21300154, guid: 0bb7a6885d5e74e98a614c768cd5b066, type: 3}
    - time: 1.2999995
      value: {fileID: 21300156, guid: 0bb7a6885d5e74e98a614c768cd5b066, type: 3}
    - time: 1.3166661
      value: {fileID: 21300158, guid: 0bb7a6885d5e74e98a614c768cd5b066, type: 3}
    - time: 1.3333328
      value: {fileID: 21300160, guid: 0bb7a6885d5e74e98a614c768cd5b066, type: 3}
    - time: 1.3499994
      value: {fileID: 21300162, guid: 0bb7a6885d5e74e98a614c768cd5b066, type: 3}
    - time: 1.3666661
      value: {fileID: 21300164, guid: 0bb7a6885d5e74e98a614c768cd5b066, type: 3}
    - time: 1.3833327
      value: {fileID: 21300166, guid: 0bb7a6885d5e74e98a614c768cd5b066, type: 3}
    - time: 1.3999994
      value: {fileID: 21300168, guid: 0bb7a6885d5e74e98a614c768cd5b066, type: 3}
    - time: 1.416666
      value: {fileID: 21300170, guid: 0bb7a6885d5e74e98a614c768cd5b066, type: 3}
    - time: 1.4333327
      value: {fileID: 21300172, guid: 0bb7a6885d5e74e98a614c768cd5b066, type: 3}
    - time: 1.4499993
      value: {fileID: 21300174, guid: 0bb7a6885d5e74e98a614c768cd5b066, type: 3}
    - time: 1.466666
      value: {fileID: 21300176, guid: 0bb7a6885d5e74e98a614c768cd5b066, type: 3}
    - time: 1.4833326
      value: {fileID: 21300178, guid: 0bb7a6885d5e74e98a614c768cd5b066, type: 3}
    - time: 1.4999993
      value: {fileID: 21300180, guid: 0bb7a6885d5e74e98a614c768cd5b066, type: 3}
    - time: 1.5166659
      value: {fileID: 21300182, guid: 0bb7a6885d5e74e98a614c768cd5b066, type: 3}
    - time: 1.5333326
      value: {fileID: 21300184, guid: 0bb7a6885d5e74e98a614c768cd5b066, type: 3}
    - time: 1.5499992
      value: {fileID: 21300186, guid: 0bb7a6885d5e74e98a614c768cd5b066, type: 3}
    - time: 1.5666659
      value: {fileID: 21300188, guid: 0bb7a6885d5e74e98a614c768cd5b066, type: 3}
    - time: 1.5833325
      value: {fileID: 21300190, guid: 0bb7a6885d5e74e98a614c768cd5b066, type: 3}
    - time: 1.5999992
      value: {fileID: 21300192, guid: 0bb7a6885d5e74e98a614c768cd5b066, type: 3}
    - time: 1.6166658
      value: {fileID: 21300194, guid: 0bb7a6885d5e74e98a614c768cd5b066, type: 3}
    - time: 1.6333325
      value: {fileID: 21300196, guid: 0bb7a6885d5e74e98a614c768cd5b066, type: 3}
    - time: 1.6499991
      value: {fileID: 21300198, guid: 0bb7a6885d5e74e98a614c768cd5b066, type: 3}
    - time: 1.6666658
      value: {fileID: 21300200, guid: 0bb7a6885d5e74e98a614c768cd5b066, type: 3}
    - time: 1.6833324
      value: {fileID: 21300202, guid: 0bb7a6885d5e74e98a614c768cd5b066, type: 3}
    - time: 1.6999991
      value: {fileID: 21300204, guid: 0bb7a6885d5e74e98a614c768cd5b066, type: 3}
    - time: 1.7166657
      value: {fileID: 21300206, guid: 0bb7a6885d5e74e98a614c768cd5b066, type: 3}
    - time: 1.7333324
      value: {fileID: 21300208, guid: 0bb7a6885d5e74e98a614c768cd5b066, type: 3}
    - time: 1.749999
      value: {fileID: 21300210, guid: 0bb7a6885d5e74e98a614c768cd5b066, type: 3}
    - time: 1.7666657
      value: {fileID: 21300212, guid: 0bb7a6885d5e74e98a614c768cd5b066, type: 3}
    - time: 1.7833323
      value: {fileID: 21300214, guid: 0bb7a6885d5e74e98a614c768cd5b066, type: 3}
    - time: 1.799999
      value: {fileID: 21300216, guid: 0bb7a6885d5e74e98a614c768cd5b066, type: 3}
    - time: 1.8166656
      value: {fileID: 21300218, guid: 0bb7a6885d5e74e98a614c768cd5b066, type: 3}
    - time: 1.8333323
      value: {fileID: 21300220, guid: 0bb7a6885d5e74e98a614c768cd5b066, type: 3}
    - time: 1.849999
      value: {fileID: 21300222, guid: 0bb7a6885d5e74e98a614c768cd5b066, type: 3}
    - time: 1.8666656
      value: {fileID: 21300224, guid: 0bb7a6885d5e74e98a614c768cd5b066, type: 3}
    - time: 1.8833323
      value: {fileID: 21300226, guid: 0bb7a6885d5e74e98a614c768cd5b066, type: 3}
    - time: 1.8999989
      value: {fileID: 21300228, guid: 0bb7a6885d5e74e98a614c768cd5b066, type: 3}
    - time: 1.9166656
      value: {fileID: 21300230, guid: 0bb7a6885d5e74e98a614c768cd5b066, type: 3}
    - time: 1.9333322
      value: {fileID: 21300232, guid: 0bb7a6885d5e74e98a614c768cd5b066, type: 3}
    - time: 1.9499989
      value: {fileID: 21300234, guid: 0bb7a6885d5e74e98a614c768cd5b066, type: 3}
    - time: 1.9666655
      value: {fileID: 21300236, guid: 0bb7a6885d5e74e98a614c768cd5b066, type: 3}
    - time: 1.9833322
      value: {fileID: 21300238, guid: 0bb7a6885d5e74e98a614c768cd5b066, type: 3}
    - time: 1.9999988
      value: {fileID: 21300240, guid: 0bb7a6885d5e74e98a614c768cd5b066, type: 3}
    - time: 2.0166655
      value: {fileID: 21300242, guid: 0bb7a6885d5e74e98a614c768cd5b066, type: 3}
    - time: 2.033332
      value: {fileID: 21300244, guid: 0bb7a6885d5e74e98a614c768cd5b066, type: 3}
    - time: 2.0499988
      value: {fileID: 21300246, guid: 0bb7a6885d5e74e98a614c768cd5b066, type: 3}
    - time: 2.0666654
      value: {fileID: 21300248, guid: 0bb7a6885d5e74e98a614c768cd5b066, type: 3}
    - time: 2.083332
      value: {fileID: 21300250, guid: 0bb7a6885d5e74e98a614c768cd5b066, type: 3}
    - time: 2.0999987
      value: {fileID: 21300252, guid: 0bb7a6885d5e74e98a614c768cd5b066, type: 3}
    - time: 2.1166654
      value: {fileID: 21300254, guid: 0bb7a6885d5e74e98a614c768cd5b066, type: 3}
    - time: 2.133332
      value: {fileID: 21300256, guid: 0bb7a6885d5e74e98a614c768cd5b066, type: 3}
    - time: 2.1499987
      value: {fileID: 21300258, guid: 0bb7a6885d5e74e98a614c768cd5b066, type: 3}
    - time: 2.1666653
      value: {fileID: 21300260, guid: 0bb7a6885d5e74e98a614c768cd5b066, type: 3}
    - time: 2.183332
      value: {fileID: 21300262, guid: 0bb7a6885d5e74e98a614c768cd5b066, type: 3}
    - time: 2.1999986
      value: {fileID: 21300264, guid: 0bb7a6885d5e74e98a614c768cd5b066, type: 3}
    - time: 2.2166653
      value: {fileID: 21300266, guid: 0bb7a6885d5e74e98a614c768cd5b066, type: 3}
    - time: 2.233332
      value: {fileID: 21300268, guid: 0bb7a6885d5e74e98a614c768cd5b066, type: 3}
    - time: 2.2499986
      value: {fileID: 21300270, guid: 0bb7a6885d5e74e98a614c768cd5b066, type: 3}
    - time: 2.2666652
      value: {fileID: 21300272, guid: 0bb7a6885d5e74e98a614c768cd5b066, type: 3}
    - time: 2.2833319
      value: {fileID: 21300274, guid: 0bb7a6885d5e74e98a614c768cd5b066, type: 3}
    - time: 2.2999985
      value: {fileID: 21300276, guid: 0bb7a6885d5e74e98a614c768cd5b066, type: 3}
    - time: 2.3166652
      value: {fileID: 21300278, guid: 0bb7a6885d5e74e98a614c768cd5b066, type: 3}
    - time: 2.3333318
      value: {fileID: 21300280, guid: 0bb7a6885d5e74e98a614c768cd5b066, type: 3}
    - time: 2.3499985
      value: {fileID: 21300282, guid: 0bb7a6885d5e74e98a614c768cd5b066, type: 3}
    - time: 2.3666651
      value: {fileID: 21300284, guid: 0bb7a6885d5e74e98a614c768cd5b066, type: 3}
    - time: 2.3833318
      value: {fileID: 21300286, guid: 0bb7a6885d5e74e98a614c768cd5b066, type: 3}
    - time: 2.3999984
      value: {fileID: 21300288, guid: 0bb7a6885d5e74e98a614c768cd5b066, type: 3}
    - time: 2.416665
      value: {fileID: 21300290, guid: 0bb7a6885d5e74e98a614c768cd5b066, type: 3}
    - time: 2.4333317
      value: {fileID: 21300292, guid: 0bb7a6885d5e74e98a614c768cd5b066, type: 3}
    - time: 2.4499984
      value: {fileID: 21300294, guid: 0bb7a6885d5e74e98a614c768cd5b066, type: 3}
    - time: 2.466665
      value: {fileID: 21300296, guid: 0bb7a6885d5e74e98a614c768cd5b066, type: 3}
    - time: 2.4833317
      value: {fileID: 21300298, guid: 0bb7a6885d5e74e98a614c768cd5b066, type: 3}
    - time: 2.4999983
      value: {fileID: 21300300, guid: 0bb7a6885d5e74e98a614c768cd5b066, type: 3}
    - time: 2.516665
      value: {fileID: 21300302, guid: 0bb7a6885d5e74e98a614c768cd5b066, type: 3}
    - time: 2.5333316
      value: {fileID: 21300304, guid: 0bb7a6885d5e74e98a614c768cd5b066, type: 3}
    - time: 2.5499983
      value: {fileID: 21300306, guid: 0bb7a6885d5e74e98a614c768cd5b066, type: 3}
    - time: 2.566665
      value: {fileID: 21300308, guid: 0bb7a6885d5e74e98a614c768cd5b066, type: 3}
    - time: 2.5833316
      value: {fileID: 21300310, guid: 0bb7a6885d5e74e98a614c768cd5b066, type: 3}
    - time: 2.5999982
      value: {fileID: 21300312, guid: 0bb7a6885d5e74e98a614c768cd5b066, type: 3}
    - time: 2.616665
      value: {fileID: 21300314, guid: 0bb7a6885d5e74e98a614c768cd5b066, type: 3}
    - time: 2.6333315
      value: {fileID: 21300316, guid: 0bb7a6885d5e74e98a614c768cd5b066, type: 3}
    - time: 2.6499982
      value: {fileID: 21300318, guid: 0bb7a6885d5e74e98a614c768cd5b066, type: 3}
    - time: 2.6666648
      value: {fileID: 21300320, guid: 0bb7a6885d5e74e98a614c768cd5b066, type: 3}
    - time: 2.6833315
      value: {fileID: 21300322, guid: 0bb7a6885d5e74e98a614c768cd5b066, type: 3}
    - time: 2.6999981
      value: {fileID: 21300324, guid: 0bb7a6885d5e74e98a614c768cd5b066, type: 3}
    - time: 2.7166648
      value: {fileID: 21300326, guid: 0bb7a6885d5e74e98a614c768cd5b066, type: 3}
    - time: 2.7333314
      value: {fileID: 21300328, guid: 0bb7a6885d5e74e98a614c768cd5b066, type: 3}
    - time: 2.749998
      value: {fileID: 21300330, guid: 0bb7a6885d5e74e98a614c768cd5b066, type: 3}
    - time: 2.7666647
      value: {fileID: 21300332, guid: 0bb7a6885d5e74e98a614c768cd5b066, type: 3}
    - time: 2.7833314
      value: {fileID: 21300334, guid: 0bb7a6885d5e74e98a614c768cd5b066, type: 3}
    - time: 2.799998
      value: {fileID: 21300336, guid: 0bb7a6885d5e74e98a614c768cd5b066, type: 3}
    - time: 2.8166647
      value: {fileID: 21300338, guid: 0bb7a6885d5e74e98a614c768cd5b066, type: 3}
    - time: 2.8333313
      value: {fileID: 21300340, guid: 0bb7a6885d5e74e98a614c768cd5b066, type: 3}
    - time: 2.849998
      value: {fileID: 21300342, guid: 0bb7a6885d5e74e98a614c768cd5b066, type: 3}
    - time: 2.8666646
      value: {fileID: 21300344, guid: 0bb7a6885d5e74e98a614c768cd5b066, type: 3}
    - time: 2.8833313
      value: {fileID: 21300346, guid: 0bb7a6885d5e74e98a614c768cd5b066, type: 3}
    - time: 2.899998
      value: {fileID: 21300348, guid: 0bb7a6885d5e74e98a614c768cd5b066, type: 3}
    - time: 2.9166646
      value: {fileID: 21300350, guid: 0bb7a6885d5e74e98a614c768cd5b066, type: 3}
    - time: 2.9333313
      value: {fileID: 21300352, guid: 0bb7a6885d5e74e98a614c768cd5b066, type: 3}
    - time: 2.949998
      value: {fileID: 21300354, guid: 0bb7a6885d5e74e98a614c768cd5b066, type: 3}
    - time: 2.9666646
      value: {fileID: 21300356, guid: 0bb7a6885d5e74e98a614c768cd5b066, type: 3}
    - time: 2.9833312
      value: {fileID: 21300358, guid: 0bb7a6885d5e74e98a614c768cd5b066, type: 3}
    attribute: m_Sprite
    path: 
    classID: 212
    script: {fileID: 0}
  m_SampleRate: 60
  m_WrapMode: 0
  m_Bounds:
    m_Center: {x: 0, y: 0, z: 0}
    m_Extent: {x: 0, y: 0, z: 0}
  m_ClipBindingConstant:
    genericBindings:
    - serializedVersion: 2
      path: 0
      attribute: 0
      script: {fileID: 0}
      typeID: 212
      customType: 23
      isPPtrCurve: 1
    pptrCurveMapping:
    - {fileID: 21300000, guid: 0bb7a6885d5e74e98a614c768cd5b066, type: 3}
    - {fileID: 21300002, guid: 0bb7a6885d5e74e98a614c768cd5b066, type: 3}
    - {fileID: 21300004, guid: 0bb7a6885d5e74e98a614c768cd5b066, type: 3}
    - {fileID: 21300006, guid: 0bb7a6885d5e74e98a614c768cd5b066, type: 3}
    - {fileID: 21300008, guid: 0bb7a6885d5e74e98a614c768cd5b066, type: 3}
    - {fileID: 21300010, guid: 0bb7a6885d5e74e98a614c768cd5b066, type: 3}
    - {fileID: 21300012, guid: 0bb7a6885d5e74e98a614c768cd5b066, type: 3}
    - {fileID: 21300014, guid: 0bb7a6885d5e74e98a614c768cd5b066, type: 3}
    - {fileID: 21300016, guid: 0bb7a6885d5e74e98a614c768cd5b066, type: 3}
    - {fileID: 21300018, guid: 0bb7a6885d5e74e98a614c768cd5b066, type: 3}
    - {fileID: 21300020, guid: 0bb7a6885d5e74e98a614c768cd5b066, type: 3}
    - {fileID: 21300022, guid: 0bb7a6885d5e74e98a614c768cd5b066, type: 3}
    - {fileID: 21300024, guid: 0bb7a6885d5e74e98a614c768cd5b066, type: 3}
    - {fileID: 21300026, guid: 0bb7a6885d5e74e98a614c768cd5b066, type: 3}
    - {fileID: 21300028, guid: 0bb7a6885d5e74e98a614c768cd5b066, type: 3}
    - {fileID: 21300030, guid: 0bb7a6885d5e74e98a614c768cd5b066, type: 3}
    - {fileID: 21300032, guid: 0bb7a6885d5e74e98a614c768cd5b066, type: 3}
    - {fileID: 21300034, guid: 0bb7a6885d5e74e98a614c768cd5b066, type: 3}
    - {fileID: 21300036, guid: 0bb7a6885d5e74e98a614c768cd5b066, type: 3}
    - {fileID: 21300038, guid: 0bb7a6885d5e74e98a614c768cd5b066, type: 3}
    - {fileID: 21300040, guid: 0bb7a6885d5e74e98a614c768cd5b066, type: 3}
    - {fileID: 21300042, guid: 0bb7a6885d5e74e98a614c768cd5b066, type: 3}
    - {fileID: 21300044, guid: 0bb7a6885d5e74e98a614c768cd5b066, type: 3}
    - {fileID: 21300046, guid: 0bb7a6885d5e74e98a614c768cd5b066, type: 3}
    - {fileID: 21300048, guid: 0bb7a6885d5e74e98a614c768cd5b066, type: 3}
    - {fileID: 21300050, guid: 0bb7a6885d5e74e98a614c768cd5b066, type: 3}
    - {fileID: 21300052, guid: 0bb7a6885d5e74e98a614c768cd5b066, type: 3}
    - {fileID: 21300054, guid: 0bb7a6885d5e74e98a614c768cd5b066, type: 3}
    - {fileID: 21300056, guid: 0bb7a6885d5e74e98a614c768cd5b066, type: 3}
    - {fileID: 21300058, guid: 0bb7a6885d5e74e98a614c768cd5b066, type: 3}
    - {fileID: 21300060, guid: 0bb7a6885d5e74e98a614c768cd5b066, type: 3}
    - {fileID: 21300062, guid: 0bb7a6885d5e74e98a614c768cd5b066, type: 3}
    - {fileID: 21300064, guid: 0bb7a6885d5e74e98a614c768cd5b066, type: 3}
    - {fileID: 21300066, guid: 0bb7a6885d5e74e98a614c768cd5b066, type: 3}
    - {fileID: 21300068, guid: 0bb7a6885d5e74e98a614c768cd5b066, type: 3}
    - {fileID: 21300070, guid: 0bb7a6885d5e74e98a614c768cd5b066, type: 3}
    - {fileID: 21300072, guid: 0bb7a6885d5e74e98a614c768cd5b066, type: 3}
    - {fileID: 21300074, guid: 0bb7a6885d5e74e98a614c768cd5b066, type: 3}
    - {fileID: 21300076, guid: 0bb7a6885d5e74e98a614c768cd5b066, type: 3}
    - {fileID: 21300078, guid: 0bb7a6885d5e74e98a614c768cd5b066, type: 3}
    - {fileID: 21300080, guid: 0bb7a6885d5e74e98a614c768cd5b066, type: 3}
    - {fileID: 21300082, guid: 0bb7a6885d5e74e98a614c768cd5b066, type: 3}
    - {fileID: 21300084, guid: 0bb7a6885d5e74e98a614c768cd5b066, type: 3}
    - {fileID: 21300086, guid: 0bb7a6885d5e74e98a614c768cd5b066, type: 3}
    - {fileID: 21300088, guid: 0bb7a6885d5e74e98a614c768cd5b066, type: 3}
    - {fileID: 21300090, guid: 0bb7a6885d5e74e98a614c768cd5b066, type: 3}
    - {fileID: 21300092, guid: 0bb7a6885d5e74e98a614c768cd5b066, type: 3}
    - {fileID: 21300094, guid: 0bb7a6885d5e74e98a614c768cd5b066, type: 3}
    - {fileID: 21300096, guid: 0bb7a6885d5e74e98a614c768cd5b066, type: 3}
    - {fileID: 21300098, guid: 0bb7a6885d5e74e98a614c768cd5b066, type: 3}
    - {fileID: 21300100, guid: 0bb7a6885d5e74e98a614c768cd5b066, type: 3}
    - {fileID: 21300102, guid: 0bb7a6885d5e74e98a614c768cd5b066, type: 3}
    - {fileID: 21300104, guid: 0bb7a6885d5e74e98a614c768cd5b066, type: 3}
    - {fileID: 21300106, guid: 0bb7a6885d5e74e98a614c768cd5b066, type: 3}
    - {fileID: 21300108, guid: 0bb7a6885d5e74e98a614c768cd5b066, type: 3}
    - {fileID: 21300110, guid: 0bb7a6885d5e74e98a614c768cd5b066, type: 3}
    - {fileID: 21300112, guid: 0bb7a6885d5e74e98a614c768cd5b066, type: 3}
    - {fileID: 21300114, guid: 0bb7a6885d5e74e98a614c768cd5b066, type: 3}
    - {fileID: 21300116, guid: 0bb7a6885d5e74e98a614c768cd5b066, type: 3}
    - {fileID: 21300118, guid: 0bb7a6885d5e74e98a614c768cd5b066, type: 3}
    - {fileID: 21300120, guid: 0bb7a6885d5e74e98a614c768cd5b066, type: 3}
    - {fileID: 21300122, guid: 0bb7a6885d5e74e98a614c768cd5b066, type: 3}
    - {fileID: 21300124, guid: 0bb7a6885d5e74e98a614c768cd5b066, type: 3}
    - {fileID: 21300126, guid: 0bb7a6885d5e74e98a614c768cd5b066, type: 3}
    - {fileID: 21300128, guid: 0bb7a6885d5e74e98a614c768cd5b066, type: 3}
    - {fileID: 21300130, guid: 0bb7a6885d5e74e98a614c768cd5b066, type: 3}
    - {fileID: 21300132, guid: 0bb7a6885d5e74e98a614c768cd5b066, type: 3}
    - {fileID: 21300134, guid: 0bb7a6885d5e74e98a614c768cd5b066, type: 3}
    - {fileID: 21300136, guid: 0bb7a6885d5e74e98a614c768cd5b066, type: 3}
    - {fileID: 21300138, guid: 0bb7a6885d5e74e98a614c768cd5b066, type: 3}
    - {fileID: 21300140, guid: 0bb7a6885d5e74e98a614c768cd5b066, type: 3}
    - {fileID: 21300142, guid: 0bb7a6885d5e74e98a614c768cd5b066, type: 3}
    - {fileID: 21300144, guid: 0bb7a6885d5e74e98a614c768cd5b066, type: 3}
    - {fileID: 21300146, guid: 0bb7a6885d5e74e98a614c768cd5b066, type: 3}
    - {fileID: 21300148, guid: 0bb7a6885d5e74e98a614c768cd5b066, type: 3}
    - {fileID: 21300150, guid: 0bb7a6885d5e74e98a614c768cd5b066, type: 3}
    - {fileID: 21300152, guid: 0bb7a6885d5e74e98a614c768cd5b066, type: 3}
    - {fileID: 21300154, guid: 0bb7a6885d5e74e98a614c768cd5b066, type: 3}
    - {fileID: 21300156, guid: 0bb7a6885d5e74e98a614c768cd5b066, type: 3}
    - {fileID: 21300158, guid: 0bb7a6885d5e74e98a614c768cd5b066, type: 3}
    - {fileID: 21300160, guid: 0bb7a6885d5e74e98a614c768cd5b066, type: 3}
    - {fileID: 21300162, guid: 0bb7a6885d5e74e98a614c768cd5b066, type: 3}
    - {fileID: 21300164, guid: 0bb7a6885d5e74e98a614c768cd5b066, type: 3}
    - {fileID: 21300166, guid: 0bb7a6885d5e74e98a614c768cd5b066, type: 3}
    - {fileID: 21300168, guid: 0bb7a6885d5e74e98a614c768cd5b066, type: 3}
    - {fileID: 21300170, guid: 0bb7a6885d5e74e98a614c768cd5b066, type: 3}
    - {fileID: 21300172, guid: 0bb7a6885d5e74e98a614c768cd5b066, type: 3}
    - {fileID: 21300174, guid: 0bb7a6885d5e74e98a614c768cd5b066, type: 3}
    - {fileID: 21300176, guid: 0bb7a6885d5e74e98a614c768cd5b066, type: 3}
    - {fileID: 21300178, guid: 0bb7a6885d5e74e98a614c768cd5b066, type: 3}
    - {fileID: 21300180, guid: 0bb7a6885d5e74e98a614c768cd5b066, type: 3}
    - {fileID: 21300182, guid: 0bb7a6885d5e74e98a614c768cd5b066, type: 3}
    - {fileID: 21300184, guid: 0bb7a6885d5e74e98a614c768cd5b066, type: 3}
    - {fileID: 21300186, guid: 0bb7a6885d5e74e98a614c768cd5b066, type: 3}
    - {fileID: 21300188, guid: 0bb7a6885d5e74e98a614c768cd5b066, type: 3}
    - {fileID: 21300190, guid: 0bb7a6885d5e74e98a614c768cd5b066, type: 3}
    - {fileID: 21300192, guid: 0bb7a6885d5e74e98a614c768cd5b066, type: 3}
    - {fileID: 21300194, guid: 0bb7a6885d5e74e98a614c768cd5b066, type: 3}
    - {fileID: 21300196, guid: 0bb7a6885d5e74e98a614c768cd5b066, type: 3}
    - {fileID: 21300198, guid: 0bb7a6885d5e74e98a614c768cd5b066, type: 3}
    - {fileID: 21300200, guid: 0bb7a6885d5e74e98a614c768cd5b066, type: 3}
    - {fileID: 21300202, guid: 0bb7a6885d5e74e98a614c768cd5b066, type: 3}
    - {fileID: 21300204, guid: 0bb7a6885d5e74e98a614c768cd5b066, type: 3}
    - {fileID: 21300206, guid: 0bb7a6885d5e74e98a614c768cd5b066, type: 3}
    - {fileID: 21300208, guid: 0bb7a6885d5e74e98a614c768cd5b066, type: 3}
    - {fileID: 21300210, guid: 0bb7a6885d5e74e98a614c768cd5b066, type: 3}
    - {fileID: 21300212, guid: 0bb7a6885d5e74e98a614c768cd5b066, type: 3}
    - {fileID: 21300214, guid: 0bb7a6885d5e74e98a614c768cd5b066, type: 3}
    - {fileID: 21300216, guid: 0bb7a6885d5e74e98a614c768cd5b066, type: 3}
    - {fileID: 21300218, guid: 0bb7a6885d5e74e98a614c768cd5b066, type: 3}
    - {fileID: 21300220, guid: 0bb7a6885d5e74e98a614c768cd5b066, type: 3}
    - {fileID: 21300222, guid: 0bb7a6885d5e74e98a614c768cd5b066, type: 3}
    - {fileID: 21300224, guid: 0bb7a6885d5e74e98a614c768cd5b066, type: 3}
    - {fileID: 21300226, guid: 0bb7a6885d5e74e98a614c768cd5b066, type: 3}
    - {fileID: 21300228, guid: 0bb7a6885d5e74e98a614c768cd5b066, type: 3}
    - {fileID: 21300230, guid: 0bb7a6885d5e74e98a614c768cd5b066, type: 3}
    - {fileID: 21300232, guid: 0bb7a6885d5e74e98a614c768cd5b066, type: 3}
    - {fileID: 21300234, guid: 0bb7a6885d5e74e98a614c768cd5b066, type: 3}
    - {fileID: 21300236, guid: 0bb7a6885d5e74e98a614c768cd5b066, type: 3}
    - {fileID: 21300238, guid: 0bb7a6885d5e74e98a614c768cd5b066, type: 3}
    - {fileID: 21300240, guid: 0bb7a6885d5e74e98a614c768cd5b066, type: 3}
    - {fileID: 21300242, guid: 0bb7a6885d5e74e98a614c768cd5b066, type: 3}
    - {fileID: 21300244, guid: 0bb7a6885d5e74e98a614c768cd5b066, type: 3}
    - {fileID: 21300246, guid: 0bb7a6885d5e74e98a614c768cd5b066, type: 3}
    - {fileID: 21300248, guid: 0bb7a6885d5e74e98a614c768cd5b066, type: 3}
    - {fileID: 21300250, guid: 0bb7a6885d5e74e98a614c768cd5b066, type: 3}
    - {fileID: 21300252, guid: 0bb7a6885d5e74e98a614c768cd5b066, type: 3}
    - {fileID: 21300254, guid: 0bb7a6885d5e74e98a614c768cd5b066, type: 3}
    - {fileID: 21300256, guid: 0bb7a6885d5e74e98a614c768cd5b066, type: 3}
    - {fileID: 21300258, guid: 0bb7a6885d5e74e98a614c768cd5b066, type: 3}
    - {fileID: 21300260, guid: 0bb7a6885d5e74e98a614c768cd5b066, type: 3}
    - {fileID: 21300262, guid: 0bb7a6885d5e74e98a614c768cd5b066, type: 3}
    - {fileID: 21300264, guid: 0bb7a6885d5e74e98a614c768cd5b066, type: 3}
    - {fileID: 21300266, guid: 0bb7a6885d5e74e98a614c768cd5b066, type: 3}
    - {fileID: 21300268, guid: 0bb7a6885d5e74e98a614c768cd5b066, type: 3}
    - {fileID: 21300270, guid: 0bb7a6885d5e74e98a614c768cd5b066, type: 3}
    - {fileID: 21300272, guid: 0bb7a6885d5e74e98a614c768cd5b066, type: 3}
    - {fileID: 21300274, guid: 0bb7a6885d5e74e98a614c768cd5b066, type: 3}
    - {fileID: 21300276, guid: 0bb7a6885d5e74e98a614c768cd5b066, type: 3}
    - {fileID: 21300278, guid: 0bb7a6885d5e74e98a614c768cd5b066, type: 3}
    - {fileID: 21300280, guid: 0bb7a6885d5e74e98a614c768cd5b066, type: 3}
    - {fileID: 21300282, guid: 0bb7a6885d5e74e98a614c768cd5b066, type: 3}
    - {fileID: 21300284, guid: 0bb7a6885d5e74e98a614c768cd5b066, type: 3}
    - {fileID: 21300286, guid: 0bb7a6885d5e74e98a614c768cd5b066, type: 3}
    - {fileID: 21300288, guid: 0bb7a6885d5e74e98a614c768cd5b066, type: 3}
    - {fileID: 21300290, guid: 0bb7a6885d5e74e98a614c768cd5b066, type: 3}
    - {fileID: 21300292, guid: 0bb7a6885d5e74e98a614c768cd5b066, type: 3}
    - {fileID: 21300294, guid: 0bb7a6885d5e74e98a614c768cd5b066, type: 3}
    - {fileID: 21300296, guid: 0bb7a6885d5e74e98a614c768cd5b066, type: 3}
    - {fileID: 21300298, guid: 0bb7a6885d5e74e98a614c768cd5b066, type: 3}
    - {fileID: 21300300, guid: 0bb7a6885d5e74e98a614c768cd5b066, type: 3}
    - {fileID: 21300302, guid: 0bb7a6885d5e74e98a614c768cd5b066, type: 3}
    - {fileID: 21300304, guid: 0bb7a6885d5e74e98a614c768cd5b066, type: 3}
    - {fileID: 21300306, guid: 0bb7a6885d5e74e98a614c768cd5b066, type: 3}
    - {fileID: 21300308, guid: 0bb7a6885d5e74e98a614c768cd5b066, type: 3}
    - {fileID: 21300310, guid: 0bb7a6885d5e74e98a614c768cd5b066, type: 3}
    - {fileID: 21300312, guid: 0bb7a6885d5e74e98a614c768cd5b066, type: 3}
    - {fileID: 21300314, guid: 0bb7a6885d5e74e98a614c768cd5b066, type: 3}
    - {fileID: 21300316, guid: 0bb7a6885d5e74e98a614c768cd5b066, type: 3}
    - {fileID: 21300318, guid: 0bb7a6885d5e74e98a614c768cd5b066, type: 3}
    - {fileID: 21300320, guid: 0bb7a6885d5e74e98a614c768cd5b066, type: 3}
    - {fileID: 21300322, guid: 0bb7a6885d5e74e98a614c768cd5b066, type: 3}
    - {fileID: 21300324, guid: 0bb7a6885d5e74e98a614c768cd5b066, type: 3}
    - {fileID: 21300326, guid: 0bb7a6885d5e74e98a614c768cd5b066, type: 3}
    - {fileID: 21300328, guid: 0bb7a6885d5e74e98a614c768cd5b066, type: 3}
    - {fileID: 21300330, guid: 0bb7a6885d5e74e98a614c768cd5b066, type: 3}
    - {fileID: 21300332, guid: 0bb7a6885d5e74e98a614c768cd5b066, type: 3}
    - {fileID: 21300334, guid: 0bb7a6885d5e74e98a614c768cd5b066, type: 3}
    - {fileID: 21300336, guid: 0bb7a6885d5e74e98a614c768cd5b066, type: 3}
    - {fileID: 21300338, guid: 0bb7a6885d5e74e98a614c768cd5b066, type: 3}
    - {fileID: 21300340, guid: 0bb7a6885d5e74e98a614c768cd5b066, type: 3}
    - {fileID: 21300342, guid: 0bb7a6885d5e74e98a614c768cd5b066, type: 3}
    - {fileID: 21300344, guid: 0bb7a6885d5e74e98a614c768cd5b066, type: 3}
    - {fileID: 21300346, guid: 0bb7a6885d5e74e98a614c768cd5b066, type: 3}
    - {fileID: 21300348, guid: 0bb7a6885d5e74e98a614c768cd5b066, type: 3}
    - {fileID: 21300350, guid: 0bb7a6885d5e74e98a614c768cd5b066, type: 3}
    - {fileID: 21300352, guid: 0bb7a6885d5e74e98a614c768cd5b066, type: 3}
    - {fileID: 21300354, guid: 0bb7a6885d5e74e98a614c768cd5b066, type: 3}
    - {fileID: 21300356, guid: 0bb7a6885d5e74e98a614c768cd5b066, type: 3}
    - {fileID: 21300358, guid: 0bb7a6885d5e74e98a614c768cd5b066, type: 3}
  m_AnimationClipSettings:
    serializedVersion: 2
    m_AdditiveReferencePoseClip: {fileID: 0}
    m_AdditiveReferencePoseTime: 0
    m_StartTime: 0
    m_StopTime: 2.9999979
    m_OrientationOffsetY: 0
    m_Level: 0
    m_CycleOffset: 0
    m_HasAdditiveReferencePose: 0
    m_LoopTime: 0
    m_LoopBlend: 0
    m_LoopBlendOrientation: 0
    m_LoopBlendPositionY: 0
    m_LoopBlendPositionXZ: 0
    m_KeepOriginalOrientation: 0
    m_KeepOriginalPositionY: 1
    m_KeepOriginalPositionXZ: 0
    m_HeightFromFeet: 0
    m_Mirror: 0
  m_EditorCurves: []
  m_EulerEditorCurves: []
  m_HasGenericRootTransform: 0
  m_HasMotionFloatCurves: 0
  m_GenerateMotionCurves: 0
  m_Events: []
